2003/10/23 16:45:35 :: **Unit 4 Connected
2003/10/23 16:47:19 :: **Unit 2 Connected
2003/10/23 16:47:28 :: **Unit 1 Connected
2003/10/23 16:47:53 :: **Unit 5 Connected
2003/10/23 16:48:26 :: **Unit 4 Connected
2003/10/23 16:48:26 :: **Unit 7 Connected
2003/10/23 16:48:26 :: **Unit 3 Connected
2003/10/23 16:48:58 :: ** Unit 1 Module 01 Error Code(0x0006) Received
2003/10/23 16:48:58 :: ** Unit 1 Module 01 Error Code(0x0005) Received
2003/10/23 16:49:35 :: ** Unit 5 Module 01 Error Code(0x0005) Received
2003/10/23 16:53:53 :: **Unit 2 Connected
2003/10/23 16:53:53 :: **Unit 1 Connected
2003/10/23 16:53:53 :: **Unit 5 Connected
2003/10/23 16:53:53 :: **Unit 7 Connected
2003/10/23 16:53:53 :: **Unit 4 Connected
2003/10/23 16:53:54 :: **Unit 3 Connected
2003/10/23 16:55:07 :: **Unit 4 Connected
2003/10/23 16:55:07 :: **Unit 3 Connected
2003/10/23 16:55:07 :: **Unit 1 Connected
2003/10/23 16:55:07 :: **Unit 7 Connected
2003/10/23 16:55:07 :: **Unit 5 Connected
2003/10/23 16:55:07 :: **Unit 2 Connected
2003/10/23 17:13:03 :: **Unit 3 Connected
2003/10/23 17:13:03 :: **Unit 2 Connected
2003/10/23 17:13:03 :: **Unit 5 Connected
2003/10/23 17:13:03 :: **Unit 7 Connected
2003/10/23 17:13:03 :: **Unit 1 Connected
2003/10/23 17:13:05 :: **Unit 4 Connected
2003/10/23 17:17:37 :: **Unit 1 Connected
2003/10/23 17:17:37 :: **Unit 2 Connected
2003/10/23 17:17:37 :: **Unit 5 Connected
2003/10/23 17:17:37 :: **Unit 7 Connected
2003/10/23 17:17:37 :: **Unit 3 Connected
2003/10/23 17:18:01 :: **Unit 4 Connected
2003/10/23 17:21:21 :: ** Unit 1 Module 01 Error Code(0x0005) Received
2003/10/23 17:27:10 :: **Unit 3 Connected
2003/10/23 17:27:10 :: **Unit 4 Connected
2003/10/23 17:27:10 :: **Unit 1 Connected
2003/10/23 17:27:10 :: **Unit 2 Connected
2003/10/23 17:27:10 :: **Unit 5 Connected
2003/10/23 17:27:10 :: **Unit 7 Connected
2003/10/23 17:27:34 :: ** Unit 2 Module 02 Error Code(0x0006) Received
2003/10/23 17:27:40 :: ** Unit 2 Module 02 Error Code(0x0022) Received
2003/10/23 17:32:09 :: **Unit 5 Connected
2003/10/23 17:32:09 :: **Unit 7 Connected
2003/10/23 17:32:09 :: **Unit 3 Connected
2003/10/23 17:32:09 :: **Unit 1 Connected
2003/10/23 17:32:09 :: **Unit 4 Connected
2003/10/23 17:32:13 :: **Unit 2 Connected
2003/10/23 17:34:32 :: **Unit 2 Connected
2003/10/23 17:34:32 :: **Unit 7 Connected
2003/10/23 17:34:32 :: **Unit 5 Connected
2003/10/23 17:34:32 :: **Unit 3 Connected
2003/10/23 17:34:32 :: **Unit 1 Connected
2003/10/23 17:34:32 :: **Unit 4 Connected
2003/10/23 17:40:46 :: **Unit 1 Connected
2003/10/23 17:40:46 :: **Unit 7 Connected
2003/10/23 17:40:46 :: **Unit 5 Connected
2003/10/23 17:40:46 :: **Unit 3 Connected
2003/10/23 17:40:46 :: **Unit 4 Connected
2003/10/23 17:40:48 :: **Unit 2 Connected
2003/10/23 17:41:42 :: ** Unit 1 Module 01 Error Code(0x0006) Received
2003/10/23 17:48:14 :: **Unit 1 Connected
2003/10/23 17:48:14 :: **Unit 3 Connected
2003/10/23 17:48:14 :: **Unit 4 Connected
2003/10/23 17:48:14 :: **Unit 7 Connected
2003/10/23 17:48:14 :: **Unit 5 Connected
2003/10/23 17:48:17 :: **Unit 2 Connected
2003/10/23 17:52:10 :: **Unit 1 Connected
2003/10/23 17:52:10 :: **Unit 3 Connected
2003/10/23 17:52:10 :: **Unit 4 Connected
2003/10/23 17:52:10 :: **Unit 2 Connected
2003/10/23 17:52:10 :: **Unit 7 Connected
2003/10/23 17:52:13 :: **Unit 5 Connected
2003/10/23 17:53:45 :: **Unit 4 Connected
2003/10/23 17:53:45 :: **Unit 2 Connected
2003/10/23 17:53:45 :: **Unit 7 Connected
2003/10/23 17:53:45 :: **Unit 5 Connected
2003/10/23 17:53:45 :: **Unit 1 Connected
2003/10/23 17:53:46 :: **Unit 3 Connected
2003/10/23 17:58:53 :: **Unit 3 Connected
2003/10/23 17:58:53 :: **Unit 4 Connected
2003/10/23 17:58:53 :: **Unit 7 Connected
2003/10/23 17:58:53 :: **Unit 2 Connected
2003/10/23 17:58:53 :: **Unit 5 Connected
2003/10/23 17:58:53 :: **Unit 1 Connected
2003/10/23 17:59:57 :: **Unit 2 Connected
2003/10/23 17:59:57 :: **Unit 5 Connected
2003/10/23 17:59:57 :: **Unit 1 Connected
2003/10/23 17:59:57 :: **Unit 3 Connected
2003/10/23 18:00:21 :: **Unit 4 Connected
2003/10/23 18:00:21 :: **Unit 7 Connected
2003/10/23 18:21:13 :: ** Unit 1 Module 01 Error Code(0x000B) Received
2003/10/23 18:42:17 :: ** Unit 1 Module 01 Error Code(0x0022) Received
2003/10/23 18:42:34 :: ** Unit 2 Module 02 Error Code(0x0006) Received
2003/10/23 18:42:57 :: ** Unit 2 Module 02 Error Code(0x0022) Received
2003/10/23 18:44:14 :: ** Unit 2 Module 03 Error Code(0x0006) Received
2003/10/23 18:44:40 :: ** Unit 2 Module 03 Error Code(0x0022) Received
2003/10/23 18:45:17 :: ** Unit 2 Module 01 Error Code(0x0006) Received
2003/10/23 18:45:43 :: ** Unit 2 Module 01 Error Code(0x0022) Received
2003/10/23 18:45:44 :: ** Unit 3 Module 01 Error Code(0x0006) Received
2003/10/23 18:46:10 :: ** Unit 3 Module 01 Error Code(0x0022) Received
2003/10/23 18:47:10 :: ** Unit 3 Module 02 Error Code(0x0006) Received
2003/10/23 18:47:33 :: ** Unit 3 Module 02 Error Code(0x0022) Received
2003/10/23 18:47:43 :: ** Unit 3 Module 03 Error Code(0x0006) Received
2003/10/23 18:48:09 :: ** Unit 3 Module 03 Error Code(0x0022) Received
2003/10/23 18:48:48 :: ** Unit 3 Module 04 Error Code(0x0006) Received
2003/10/23 18:49:14 :: ** Unit 3 Module 04 Error Code(0x0022) Received
2003/10/23 18:50:36 :: ** Unit 4 Module 01 Error Code(0x0006) Received
2003/10/23 18:51:40 :: ** Unit 4 Module 02 Error Code(0x0006) Received
2003/10/23 18:52:25 :: ** Unit 4 Module 03 Error Code(0x0006) Received
2003/10/23 18:53:15 :: ** Unit 4 Module 04 Error Code(0x0006) Received
2003/10/23 18:54:05 :: ** Unit 5 Module 01 Error Code(0x0006) Received
2003/10/23 18:54:28 :: ** Unit 5 Module 01 Error Code(0x0022) Received
2003/10/23 18:54:50 :: ** Unit 5 Module 02 Error Code(0x0006) Received
2003/10/23 18:55:16 :: ** Unit 5 Module 02 Error Code(0x0022) Received
2003/10/23 18:55:43 :: ** Unit 5 Module 03 Error Code(0x0006) Received
2003/10/23 18:56:06 :: ** Unit 5 Module 03 Error Code(0x0022) Received
2003/10/23 18:56:30 :: ** Unit 5 Module 04 Error Code(0x0006) Received
2003/10/23 18:56:56 :: ** Unit 5 Module 04 Error Code(0x0022) Received
2003/10/23 19:00:15 :: ** Unit 7 Module 02 Error Code(0x0006) Received
2003/10/23 19:00:41 :: ** Unit 7 Module 02 Error Code(0x0022) Received
2003/10/23 19:01:09 :: ** Unit 7 Module 03 Error Code(0x0006) Received
2003/10/23 19:01:36 :: ** Unit 7 Module 03 Error Code(0x0022) Received
2003/10/23 19:02:02 :: ** Unit 7 Module 04 Error Code(0x0006) Received
2003/10/23 19:02:11 :: ** Unit 7 Module 01 Error Code(0x0005) Received
2003/10/23 19:02:28 :: ** Unit 7 Module 04 Error Code(0x0022) Received
2003/10/23 19:06:02 :: ** Unit 7 Module 01 Error Code(0x0022) Received
2003/10/23 19:17:02 :: **Unit 6 Connected
2003/10/23 19:21:23 :: ** Unit 7 Module 01 Error Code(0x0006) Received
2003/10/23 19:21:49 :: ** Unit 7 Module 01 Error Code(0x0022) Received
2003/10/23 19:26:13 :: **Unit 3 Connected
2003/10/23 19:26:13 :: **Unit 5 Connected
2003/10/23 19:26:13 :: **Unit 1 Connected
2003/10/23 19:26:13 :: **Unit 4 Connected
2003/10/23 19:26:13 :: **Unit 2 Connected
2003/10/23 19:26:15 :: **Unit 7 Connected
2003/10/23 19:26:24 :: ** Unit 1 Module 02 Error Code(0x0006) Received
2003/10/23 19:27:17 :: ** Unit 1 Module 03 Error Code(0x0006) Received
2003/10/23 19:27:53 :: ** Unit 1 Module 04 Error Code(0x0006) Received
2003/10/23 19:33:20 :: **Unit 7 Connected
2003/10/23 19:33:20 :: **Unit 3 Connected
2003/10/23 19:33:21 :: **Unit 5 Connected
2003/10/23 19:33:21 :: **Unit 1 Connected
2003/10/23 19:33:21 :: **Unit 4 Connected
2003/10/23 19:33:21 :: **Unit 2 Connected
2003/10/23 21:09:57 :: **Unit 4 Connected
2003/10/23 21:11:17 :: **Unit 7 Connected
2003/10/23 21:11:17 :: **Unit 6 Connected
2003/10/23 21:11:17 :: **Unit 1 Connected
2003/10/23 21:11:17 :: **Unit 3 Connected
2003/10/23 21:11:17 :: **Unit 5 Connected
2003/10/23 21:11:20 :: **Unit 2 Connected
2003/10/23 21:26:50 :: **Unit 1 Connected
2003/10/23 21:26:50 :: **Unit 4 Connected
2003/10/23 21:26:50 :: **Unit 5 Connected
2003/10/23 21:26:50 :: **Unit 7 Connected
2003/10/23 21:26:50 :: **Unit 2 Connected
2003/10/23 21:26:54 :: **Unit 6 Connected
2003/10/23 21:26:54 :: **Unit 3 Connected
2003/10/23 21:28:17 :: **Unit 5 Connected
2003/10/23 21:28:17 :: **Unit 7 Connected
2003/10/23 21:28:17 :: **Unit 2 Connected
2003/10/23 21:28:17 :: **Unit 6 Connected
2003/10/23 21:28:17 :: **Unit 3 Connected
2003/10/23 21:28:21 :: **Unit 1 Connected
2003/10/23 21:28:21 :: **Unit 4 Connected
2003/10/23 21:28:46 :: **Unit 1 Connected
2003/10/23 21:28:46 :: **Unit 4 Connected
2003/10/23 21:28:46 :: **Unit 5 Connected
2003/10/23 21:28:46 :: **Unit 7 Connected
2003/10/23 21:28:46 :: **Unit 2 Connected
2003/10/23 21:28:47 :: **Unit 6 Connected
2003/10/23 21:28:47 :: **Unit 3 Connected
2003/10/23 21:30:49 :: **Unit 7 Connected
2003/10/23 21:30:49 :: **Unit 2 Connected
2003/10/23 21:30:49 :: **Unit 6 Connected
2003/10/23 21:30:49 :: **Unit 3 Connected
2003/10/23 21:30:49 :: **Unit 1 Connected
2003/10/23 21:30:49 :: **Unit 4 Connected
2003/10/23 21:30:49 :: **Unit 5 Connected
2003/10/23 21:32:20 :: **Unit 3 Connected
2003/10/23 21:32:20 :: **Unit 1 Connected
2003/10/23 21:32:20 :: **Unit 4 Connected
2003/10/23 21:32:20 :: **Unit 5 Connected
2003/10/23 21:32:20 :: **Unit 7 Connected
2003/10/23 21:32:20 :: **Unit 6 Connected
2003/10/23 21:32:20 :: **Unit 2 Connected
2003/10/23 21:37:04 :: **Unit 4 Connected
2003/10/23 21:37:04 :: **Unit 5 Connected
2003/10/23 21:37:04 :: **Unit 7 Connected
2003/10/23 21:37:04 :: **Unit 2 Connected
2003/10/23 21:37:04 :: **Unit 3 Connected
2003/10/23 21:37:05 :: **Unit 1 Connected
2003/10/23 21:44:37 :: **Unit 4 Connected
2003/10/23 21:44:37 :: **Unit 5 Connected
2003/10/23 21:44:37 :: **Unit 2 Connected
2003/10/23 21:44:37 :: **Unit 7 Connected
2003/10/23 21:44:37 :: **Unit 1 Connected
2003/10/23 21:44:37 :: **Unit 3 Connected
2003/10/24 15:52:40 :: **Unit 4 Connected
2003/10/24 15:55:19 :: ** Unit 4 : Close Connection!!
2003/10/24 15:55:39 :: **Unit 1 Connected
2003/10/24 15:58:47 :: **Unit 1 Connected
2003/10/24 15:58:59 :: ** Unit 1 : Close Connection!!
2003/10/27 09:52:33 :: **Unit 7 Connected
2003/10/27 09:52:33 :: **Unit 3 Connected
2003/10/27 09:52:33 :: **Unit 1 Connected
2003/10/27 09:52:33 :: **Unit 4 Connected
2003/10/27 09:52:33 :: **Unit 5 Connected
2003/10/27 09:52:33 :: **Unit 2 Connected
2003/10/27 10:03:22 :: **Unit 5 Connected
2003/10/27 10:03:22 :: **Unit 2 Connected
2003/10/27 10:03:22 :: **Unit 1 Connected
2003/10/27 10:03:22 :: **Unit 7 Connected
2003/10/27 10:03:22 :: **Unit 3 Connected
2003/10/27 10:03:22 :: **Unit 4 Connected
2003/10/27 10:06:55 :: **Unit 1 Connected
2003/10/27 10:06:55 :: **Unit 7 Connected
2003/10/27 10:06:55 :: **Unit 3 Connected
2003/10/27 10:06:55 :: **Unit 4 Connected
2003/10/27 10:06:55 :: **Unit 2 Connected
2003/10/27 10:06:59 :: **Unit 5 Connected
2003/10/27 10:37:54 :: **Unit 1 Connected
2003/10/27 10:37:54 :: **Unit 7 Connected
2003/10/27 10:37:54 :: **Unit 3 Connected
2003/10/27 10:37:54 :: **Unit 5 Connected
2003/10/27 10:37:54 :: **Unit 4 Connected
2003/10/27 10:37:54 :: **Unit 2 Connected
2003/10/27 10:40:07 :: **Unit 3 Connected
2003/10/27 10:40:07 :: **Unit 5 Connected
2003/10/27 10:40:07 :: **Unit 4 Connected
2003/10/27 10:40:07 :: **Unit 1 Connected
2003/10/27 10:40:07 :: **Unit 2 Connected
2003/10/27 10:40:07 :: **Unit 7 Connected
2003/10/27 10:43:44 :: **Unit 7 Connected
2003/10/27 10:43:44 :: **Unit 3 Connected
2003/10/27 10:43:44 :: **Unit 5 Connected
2003/10/27 10:43:44 :: **Unit 1 Connected
2003/10/27 10:43:44 :: **Unit 4 Connected
2003/10/27 10:43:44 :: **Unit 2 Connected
2003/10/27 10:45:04 :: **Unit 7 Connected
2003/10/27 10:45:04 :: **Unit 3 Connected
2003/10/27 10:45:04 :: **Unit 5 Connected
2003/10/27 10:45:04 :: **Unit 1 Connected
2003/10/27 10:45:04 :: **Unit 4 Connected
2003/10/27 10:45:11 :: **Unit 2 Connected
2003/10/27 10:48:57 :: **Unit 3 Connected
2003/10/27 10:48:57 :: **Unit 5 Connected
2003/10/27 10:48:57 :: **Unit 1 Connected
2003/10/27 10:48:57 :: **Unit 4 Connected
2003/10/27 10:48:57 :: **Unit 2 Connected
2003/10/27 10:48:59 :: **Unit 7 Connected
2003/10/27 10:52:25 :: **Unit 5 Connected
2003/10/27 10:52:25 :: **Unit 1 Connected
2003/10/27 10:52:25 :: **Unit 4 Connected
2003/10/27 10:52:25 :: **Unit 2 Connected
2003/10/27 10:52:25 :: **Unit 7 Connected
2003/10/27 10:52:40 :: **Unit 3 Connected
2003/10/27 10:55:06 :: **Unit 3 Connected
2003/10/27 10:55:06 :: **Unit 5 Connected
2003/10/27 10:55:06 :: **Unit 1 Connected
2003/10/27 10:55:06 :: **Unit 4 Connected
2003/10/27 10:55:06 :: **Unit 2 Connected
2003/10/27 10:55:11 :: **Unit 7 Connected
2003/10/27 10:55:54 :: **Unit 4 Connected
2003/10/27 10:55:54 :: **Unit 2 Connected
2003/10/27 10:55:54 :: **Unit 7 Connected
2003/10/27 10:55:54 :: **Unit 3 Connected
2003/10/27 10:55:54 :: **Unit 1 Connected
2003/10/27 10:55:54 :: **Unit 5 Connected
2003/10/27 10:56:19 :: ** Unit 2 Module 02 Error Code(0x0005) Received
2003/10/27 10:56:39 :: **Unit 3 Connected
2003/10/27 10:56:39 :: **Unit 1 Connected
2003/10/27 10:56:39 :: **Unit 2 Connected
2003/10/27 10:56:39 :: **Unit 5 Connected
2003/10/27 10:56:39 :: **Unit 4 Connected
2003/10/27 10:56:39 :: **Unit 7 Connected
2003/10/27 11:31:06 :: ** Unit 2 Module 02 Error Code(0x0005) Received
2003/10/27 11:34:52 :: **Unit 6 Connected
2003/10/27 11:48:32 :: **Unit 3 Connected
2003/10/27 11:48:32 :: **Unit 5 Connected
2003/10/27 11:48:32 :: **Unit 7 Connected
2003/10/27 11:48:32 :: **Unit 6 Connected
2003/10/27 11:48:32 :: **Unit 1 Connected
2003/10/27 11:48:32 :: **Unit 2 Connected
2003/10/27 11:48:35 :: **Unit 4 Connected
2003/10/27 11:50:08 :: **Unit 7 Connected
2003/10/27 11:50:08 :: **Unit 6 Connected
2003/10/27 11:50:08 :: **Unit 1 Connected
2003/10/27 11:50:08 :: **Unit 4 Connected
2003/10/27 11:50:08 :: **Unit 2 Connected
2003/10/27 11:50:11 :: **Unit 3 Connected
2003/10/27 11:50:11 :: **Unit 5 Connected
2003/10/27 11:56:09 :: **Unit 3 Connected
2003/10/27 11:56:09 :: **Unit 5 Connected
2003/10/27 11:56:09 :: **Unit 7 Connected
2003/10/27 11:56:09 :: **Unit 6 Connected
2003/10/27 11:56:09 :: **Unit 4 Connected
2003/10/27 11:56:13 :: **Unit 2 Connected
2003/10/27 11:56:14 :: **Unit 1 Connected
2003/10/27 11:58:05 :: **Unit 4 Connected
2003/10/27 11:58:05 :: **Unit 2 Connected
2003/10/27 11:58:05 :: **Unit 3 Connected
2003/10/27 11:58:05 :: **Unit 5 Connected
2003/10/27 11:58:05 :: **Unit 7 Connected
2003/10/27 11:58:09 :: **Unit 6 Connected
2003/10/27 11:58:09 :: **Unit 1 Connected
2003/10/27 12:14:08 :: ** Unit 1 Module 02 Error Code(0x000B) Received
2003/10/27 12:16:43 :: ** Unit 2 Module 04 Error Code(0x0006) Received
2003/10/27 12:20:29 :: ** Unit 2 Module 04 Error Code(0x0005) Received
2003/10/27 12:25:54 :: ** Unit 2 Module 04 Error Code(0x0005) Received
2003/10/27 12:30:14 :: ** Unit 2 Module 02 Error Code(0x0022) Received
2003/10/27 12:31:21 :: ** Unit 2 Module 02 Error Code(0x0005) Received
2003/10/27 14:01:25 :: ** Unit 2 Module 04 Error Code(0x0005) Received
2003/10/27 14:08:21 :: ** Unit 1 Module 02 Error Code(0x000B) Received
2003/10/27 14:14:19 :: ** Unit 2 Module 03 Error Code(0x0005) Received
2003/10/27 14:19:36 :: **Unit 3 Connected
2003/10/27 14:19:36 :: **Unit 2 Connected
2003/10/27 14:19:36 :: **Unit 1 Connected
2003/10/27 14:19:36 :: **Unit 7 Connected
2003/10/27 14:19:36 :: **Unit 5 Connected
2003/10/27 14:19:36 :: **Unit 4 Connected
2003/10/27 14:22:21 :: **Unit 4 Connected
2003/10/27 14:22:21 :: **Unit 7 Connected
2003/10/27 14:22:21 :: **Unit 5 Connected
2003/10/27 14:22:21 :: **Unit 3 Connected
2003/10/27 14:22:21 :: **Unit 2 Connected
2003/10/27 14:22:21 :: **Unit 1 Connected
2003/10/27 14:24:06 :: **Unit 6 Connected
2003/10/27 14:25:11 :: ** Unit 5 : Close Connection!!
2003/10/27 14:25:11 :: ** Unit 4 : Close Connection!!
2003/10/27 14:25:11 :: ** Unit 2 : Close Connection!!
2003/10/27 14:25:11 :: ** Unit 1 : Close Connection!!
2003/10/27 14:25:11 :: ** Unit 6 : Close Connection!!
2003/10/27 14:25:11 :: ** Unit 7 : Close Connection!!
2003/10/27 14:25:11 :: ** Unit 3 : Close Connection!!
2003/10/27 18:02:25 :: **Unit 4 Connected
2003/10/27 18:02:25 :: **Unit 6 Connected
2003/10/27 18:02:25 :: **Unit 2 Connected
2003/10/27 18:02:25 :: **Unit 3 Connected
2003/10/27 18:02:25 :: **Unit 1 Connected
2003/10/27 18:02:26 :: **Unit 5 Connected
2003/10/27 18:04:33 :: ** Unit 4 : Close Connection!!
2003/10/27 18:04:33 :: ** Unit 1 : Close Connection!!
2003/10/27 18:04:33 :: ** Unit 5 : Close Connection!!
2003/10/27 18:04:33 :: ** Unit 6 : Close Connection!!
2003/10/27 18:04:33 :: ** Unit 3 : Close Connection!!
2003/10/27 18:04:33 :: ** Unit 2 : Close Connection!!
2003/10/27 18:54:38 :: **Unit 4 Connected
2003/10/27 19:00:54 :: ** Unit 4 : Close Connection!!
2003/10/27 19:08:20 :: **Unit 4 Connected
2003/10/27 19:08:56 :: ** Unit 4 : Close Connection!!
2003/10/27 19:20:36 :: **Unit 2 Connected
2003/10/27 19:20:58 :: **Unit 4 Connected
2003/10/27 19:21:45 :: ** Unit 2 : Close Connection!!
2003/10/27 19:21:45 :: ** Unit 4 : Close Connection!!
2003/10/27 19:31:04 :: **Unit 4 Connected
2003/10/27 19:32:09 :: **Unit 2 Connected
2003/10/27 19:34:13 :: ** Unit 4 : Close Connection!!
2003/10/27 19:34:16 :: **Unit 4 Connected
2003/10/27 19:34:52 :: ** Unit 4 : Close Connection!!
2003/10/27 19:34:52 :: ** Unit 2 : Close Connection!!
2003/10/27 19:38:27 :: **Unit 2 Connected
2003/10/27 19:38:31 :: **Unit 4 Connected
2003/10/27 19:41:14 :: **Unit 1 Connected
2003/10/27 19:41:14 :: ** Unit 1 : Close Connection!!
2003/10/27 19:41:14 :: **Unit 2 Connected
2003/10/27 19:42:41 :: ** Unit 2 Module 02 Error Code(0x0022) Received
2003/10/27 19:42:52 :: **Unit 1 Connected
2003/10/27 19:46:10 :: **Unit 2 Connected
2003/10/27 19:46:10 :: **Unit 1 Connected
2003/10/27 19:47:11 :: **Unit 2 Connected
2003/10/27 19:47:16 :: **Unit 1 Connected
2003/10/27 19:47:54 :: **Unit 2 Connected
2003/10/27 19:47:58 :: **Unit 1 Connected
2003/10/27 19:48:12 :: ** Unit 1 : Close Connection!!
2003/10/27 19:48:19 :: **Unit 1 Connected
2003/10/27 19:49:06 :: ** Unit 2 : Close Connection!!
2003/10/27 19:49:06 :: ** Unit 1 : Close Connection!!
2003/10/27 19:49:43 :: **Unit 1 Connected
2003/10/27 19:50:02 :: ** Unit 1 : Close Connection!!
2003/10/27 19:52:18 :: **Unit 4 Connected
2003/10/27 19:52:26 :: **Unit 1 Connected
2003/10/27 19:53:05 :: ** Unit 4 : Close Connection!!
2003/10/27 19:53:05 :: ** Unit 1 : Close Connection!!
2003/10/27 19:53:48 :: **Unit 1 Connected
2003/10/27 19:53:53 :: **Unit 4 Connected
2003/10/27 21:11:03 :: **Unit 4 Connected
2003/10/27 21:12:54 :: **Unit 1 Connected
2003/10/27 21:14:24 :: ** Unit 4 : Close Connection!!
2003/10/27 21:14:27 :: **Unit 4 Connected
2003/10/27 21:16:01 :: **Unit 4 Connected
2003/10/27 21:16:06 :: **Unit 1 Connected
2003/10/27 21:17:49 :: ** Unit 1 : Close Connection!!
2003/10/27 21:19:11 :: **Unit 1 Connected
2003/10/27 21:19:23 :: ** Unit 1 : Close Connection!!
2003/10/27 21:20:23 :: **Unit 1 Connected
2003/10/27 21:20:28 :: ** Unit 1 : Close Connection!!
2003/10/27 21:20:52 :: **Unit 1 Connected
2003/10/27 21:21:08 :: ** Unit 1 : Close Connection!!
2003/10/27 21:28:25 :: **Unit 4 Connected
2003/10/27 21:28:33 :: **Unit 5 Connected
2003/10/27 21:28:42 :: **Unit 6 Connected
2003/10/27 21:28:50 :: **Unit 7 Connected
2003/10/27 21:28:59 :: **Unit 3 Connected
2003/10/27 21:29:07 :: **Unit 2 Connected
2003/10/27 21:30:39 :: **Unit 1 Connected
2003/10/28 09:50:10 :: **Unit 6 Connected
2003/10/28 09:50:10 :: **Unit 3 Connected
2003/10/28 09:50:27 :: **Unit 2 Connected
2003/10/28 09:50:27 :: **Unit 4 Connected
2003/10/28 09:50:27 :: **Unit 7 Connected
2003/10/28 09:50:27 :: **Unit 5 Connected
2003/10/28 09:58:23 :: ** Unit 4 : Close Connection!!
2003/10/28 09:58:29 :: **Unit 4 Connected
2003/10/28 09:58:38 :: **Unit 1 Connected
2003/10/28 09:58:47 :: ** Unit 5 : Close Connection!!
2003/10/28 09:58:49 :: **Unit 5 Connected
2003/10/28 09:58:59 :: ** Unit 6 : Close Connection!!
2003/10/28 09:59:00 :: **Unit 6 Connected
2003/10/28 09:59:05 :: ** Unit 7 : Close Connection!!
2003/10/28 09:59:08 :: **Unit 7 Connected
2003/10/28 09:59:13 :: ** Unit 3 : Close Connection!!
2003/10/28 09:59:17 :: **Unit 3 Connected
2003/10/28 10:03:23 :: ** Unit 7 : Close Connection!!
2003/10/28 10:03:28 :: ** Unit 6 : Close Connection!!
2003/10/28 10:03:45 :: ** Unit 4 : Close Connection!!
2003/10/28 10:03:54 :: ** Unit 1 : Close Connection!!
2003/10/28 10:10:40 :: **Unit 5 Connected
2003/10/28 10:12:24 :: **Unit 1 Connected
2003/10/28 10:17:08 :: **Unit 1 Connected
2003/10/28 10:17:08 :: **Unit 5 Connected
2003/10/28 10:19:55 :: ** Unit 5 Module 02 Error Code(0x0005) Received
2003/10/28 10:20:01 :: ** Unit 5 : Close Connection!!
2003/10/28 10:20:46 :: **Unit 1 Connected
2003/10/28 10:21:13 :: ** Unit 1 : Close Connection!!
2003/10/28 10:21:14 :: **Unit 5 Connected
2003/10/28 10:21:18 :: **Unit 1 Connected
2003/10/28 10:33:12 :: ** Unit 5 : Close Connection!!
2003/10/28 10:34:48 :: **Unit 5 Connected
2003/10/28 10:36:00 :: ** Unit 5 : Close Connection!!
2003/10/28 10:42:18 :: **Unit 1 Connected
2003/10/28 10:42:18 :: **Unit 2 Connected
2003/10/28 10:43:59 :: **Unit 5 Connected
2003/10/28 10:45:33 :: **Unit 2 Connected
2003/10/28 10:45:33 :: **Unit 1 Connected
2003/10/28 10:46:42 :: **Unit 4 Connected
2003/10/28 10:46:56 :: **Unit 5 Connected
2003/10/28 10:47:10 :: **Unit 6 Connected
2003/10/28 10:47:22 :: **Unit 7 Connected
2003/10/28 10:47:36 :: **Unit 3 Connected
2003/10/28 11:01:43 :: **Unit 6 Connected
2003/10/28 11:01:43 :: **Unit 3 Connected
2003/10/28 11:01:43 :: **Unit 1 Connected
2003/10/28 11:01:43 :: **Unit 5 Connected
2003/10/28 11:01:43 :: **Unit 2 Connected
2003/10/28 11:01:43 :: **Unit 4 Connected
2003/10/28 11:01:45 :: **Unit 7 Connected
2003/10/28 11:01:48 :: **Unit 5 Connected
2003/10/28 11:03:42 :: ** Unit 5 Module 00 Error Code(0x000B) Received
2003/10/28 11:07:37 :: ** Unit 5 : Close Connection!!
2003/10/28 11:07:42 :: **Unit 5 Connected
2003/10/28 11:07:59 :: ** Unit 5 : Close Connection!!
2003/10/28 11:08:10 :: **Unit 5 Connected
2003/10/28 11:09:29 :: ** Unit 5 : Close Connection!!
2003/10/28 11:12:29 :: **Unit 5 Connected
2003/10/28 11:21:20 :: **Unit 5 Connected
2003/10/28 11:21:39 :: **Unit 1 Connected
2003/10/28 11:21:44 :: **Unit 7 Connected
2003/10/28 11:21:44 :: **Unit 2 Connected
2003/10/28 11:21:44 :: **Unit 6 Connected
2003/10/28 11:21:44 :: **Unit 3 Connected
2003/10/28 11:22:20 :: ** Unit 5 : Close Connection!!
2003/10/28 11:22:25 :: **Unit 5 Connected
2003/10/28 11:22:40 :: ** Unit 5 Module 00 Error Code(0x000B) Received
2003/10/28 11:26:27 :: ** Unit 5 : Close Connection!!
2003/10/28 11:47:02 :: **Unit 5 Connected
2003/10/28 14:07:17 :: **Unit 5 Connected
2003/10/28 14:07:33 :: ** Unit 5 : Close Connection!!
2003/10/28 14:12:30 :: **Unit 5 Connected
2003/10/28 14:13:23 :: ** Unit 5 : Close Connection!!
2003/10/28 14:17:22 :: **Unit 5 Connected
2003/10/28 14:18:30 :: ** Unit 5 : Close Connection!!
2003/10/28 14:18:57 :: **Unit 5 Connected
2003/10/28 14:19:25 :: ** Unit 5 : Close Connection!!
2003/10/28 14:33:55 :: **Unit 1 Connected
2003/10/28 14:34:35 :: ** Unit 1 : Close Connection!!
2003/10/28 14:35:20 :: **Unit 1 Connected
2003/10/28 16:08:24 :: **Unit 1 Connected
2003/10/28 16:09:39 :: ** Unit 1 : Close Connection!!
2003/10/28 16:11:04 :: **Unit 1 Connected
2003/10/28 16:14:13 :: ** Unit 1 : Close Connection!!
2003/10/28 16:14:35 :: **Unit 1 Connected
2003/10/28 16:15:32 :: ** Unit 1 : Close Connection!!
2003/10/28 16:21:43 :: **Unit 4 Connected
2003/10/28 16:21:54 :: **Unit 1 Connected
2003/10/28 16:22:12 :: ** Unit 1 : Close Connection!!
2003/10/28 16:22:12 :: ** Unit 4 : Close Connection!!
2003/10/28 16:25:24 :: **Unit 4 Connected
2003/10/28 16:25:42 :: **Unit 1 Connected
2003/10/28 16:26:18 :: ** Unit 1 : Close Connection!!
2003/10/28 16:26:18 :: ** Unit 4 : Close Connection!!
2003/10/28 16:28:05 :: **Unit 4 Connected
2003/10/28 16:28:05 :: **Unit 1 Connected
2003/10/28 16:30:45 :: ** Unit 4 : Close Connection!!
2003/10/28 16:30:51 :: ** Unit 1 : Close Connection!!
2003/10/28 16:31:38 :: **Unit 1 Connected
2003/10/28 16:31:50 :: ** Unit 1 : Close Connection!!
2003/11/18 11:03:22 :: **Unit 1 Connected
2003/11/18 11:04:12 :: ** Unit 1 : Close Connection!!
2003/11/18 11:04:21 :: **Unit 1 Connected
2003/11/18 11:13:12 :: **Unit 1 Connected
2003/11/18 11:24:38 :: **Unit 1 Connected
2003/11/18 11:26:56 :: **Unit 1 Connected
2003/11/18 11:32:23 :: **Unit 1 Connected
2003/11/18 11:48:14 :: **Unit 1 Connected
2003/11/18 11:48:33 :: **Unit 1 Connected
2003/11/18 11:52:11 :: **Unit 1 Connected
2003/11/18 11:53:07 :: ** Unit 1 : Close Connection!!
2003/11/18 11:55:09 :: **Unit 1 Connected
2003/11/18 13:07:17 :: **Unit 1 Connected
2003/11/18 13:13:10 :: ** Unit 1 : Close Connection!!
2003/11/18 13:13:55 :: **Unit 1 Connected
2003/11/18 13:18:12 :: **Unit 1 Connected
2003/11/18 13:20:35 :: **Unit 1 Connected
2003/11/18 13:21:12 :: **Unit 1 Connected
2003/11/18 13:24:59 :: **Unit 1 Connected
2003/12/03 15:45:28 :: **Unit 1 Connected
2003/12/03 15:51:07 :: **Unit 1 Connected
2003/12/03 15:57:40 :: **Unit 1 Connected
2003/12/03 16:01:56 :: **Unit 1 Connected
2003/12/03 16:22:34 :: **Unit 1 Connected
2003/12/03 16:39:28 :: **Unit 1 Connected
2003/12/03 19:11:26 :: **Unit 1 Connected
2002/01/07 14:08:28 :: **Unit 1 Connected
2002/01/07 14:28:30 :: **Unit 1 Connected
2002/01/07 14:34:26 :: **Unit 1 Connected
2002/01/07 14:56:55 :: **Unit 1 Connected
2002/01/07 14:59:18 :: **Unit 1 Connected
2002/01/07 15:08:59 :: **Unit 1 Connected
2002/01/07 15:12:22 :: **Unit 1 Connected
2002/01/07 15:15:52 :: **Unit 1 Connected
2002/01/07 15:16:57 :: ** Unit 1 : Close Connection!!
