*** Installation Started 3/31/98 16:52 ***
Title: GigaSoft ProEssentials v2.0 Installation
Source: A:\SETUP.EXE
INI New: Created INI
INI File: A:\CUSTDATA.INI
INI Sect: Registration
INI Item: NAME
INI Val: 최태암
INI File: A:\CUSTDATA.INI
INI Sect: Registration
INI Item: COMPANY
INI Val: PowerTech
INI File: A:\CUSTDATA.INI
INI Sect: Registration
INI Item: SERIALNUMBER
INI Val: pe20209671
Made Dir: E:\PROESS2
File Copy: E:\PROESS2\V2LIC.TXT
File Copy: E:\PROESS2\LIC-REG.TXT
File Copy: E:\PROESS2\PEONLREF.HLP
File Copy: C:\WINDOWS\SYSTEM\PEGRAPHS.HLP
File Copy: E:\PROESS2\README.TXT
File Copy: E:\PROESS2\VB3PEAPI.TXT
File Copy: E:\PROESS2\C.TXT
File Copy: E:\PROESS2\SAVELOAD.TXT
File Copy: E:\PROESS2\ROSEPLOT.TXT
File Copy: E:\PROESS2\VB4PEAPI.TXT
File Copy: E:\PROESS2\PEGRPAPI.H
File Copy: E:\PROESS2\DEMOCODE.TXT
File Copy: E:\PROESS2\RNDPTSTG.TXT
File Copy: E:\PROESS2\PEGRAPHS.HPJ
File Copy: E:\PROESS2\PECONTXT.H
File Copy: E:\PROESS2\PEGRAPHS.DOC
File Copy: E:\PROESS2\PRNTPAGE.TXT
File Copy: E:\PROESS2\VBPEVSET.TXT
File Copy: E:\PROESS2\POWERB4.TXT
File Copy: E:\PROESS2\OWL.TXT
File Copy: E:\PROESS2\HORZAXES.TXT
File Copy: E:\PROESS2\DELPVSET.TXT
File Copy: E:\PROESS2\BESTFIT.TXT
File Copy: E:\PROESS2\ACCPRINT.TXT
File Copy: E:\PROESS2\ACCESS2.TXT
File Copy: E:\PROESS2\REALTIME.TXT
File Copy: E:\PROESS2\CLIPRGN.TXT
File Copy: E:\PROESS2\PEGRAP32.LIB
File Copy: E:\PROESS2\PEGRPAPI.H
Installation Aborted!
*** Installation Started 3/31/98 17:06 ***
Title: GigaSoft ProEssentials v2.0 Installation
Source: A:\SETUP.EXE
File Copy: E:\PROESS2\V2LIC.TXT
File Copy: E:\PROESS2\LIC-REG.TXT
File Copy: E:\PROESS2\PEONLREF.HLP
File Copy: C:\WINDOWS\SYSTEM\PEGRAPHS.HLP
File Copy: E:\PROESS2\README.TXT
File Copy: E:\PROESS2\VB3PEAPI.TXT
File Copy: E:\PROESS2\C.TXT
File Copy: E:\PROESS2\SAVELOAD.TXT
File Copy: E:\PROESS2\ROSEPLOT.TXT
File Copy: E:\PROESS2\VB4PEAPI.TXT
File Copy: E:\PROESS2\PEGRPAPI.H
File Copy: E:\PROESS2\DEMOCODE.TXT
File Copy: E:\PROESS2\RNDPTSTG.TXT
File Copy: E:\PROESS2\PEGRAPHS.HPJ
File Copy: E:\PROESS2\PECONTXT.H
File Copy: E:\PROESS2\PEGRAPHS.DOC
File Copy: E:\PROESS2\PRNTPAGE.TXT
File Copy: E:\PROESS2\VBPEVSET.TXT
File Copy: E:\PROESS2\POWERB4.TXT
File Copy: E:\PROESS2\OWL.TXT
File Copy: E:\PROESS2\HORZAXES.TXT
File Copy: E:\PROESS2\DELPVSET.TXT
File Copy: E:\PROESS2\BESTFIT.TXT
File Copy: E:\PROESS2\ACCPRINT.TXT
File Copy: E:\PROESS2\ACCESS2.TXT
File Copy: E:\PROESS2\REALTIME.TXT
File Copy: E:\PROESS2\CLIPRGN.TXT
File Copy: E:\PROESS2\PEGRAP32.LIB
File Copy: E:\PROESS2\PEGRPAPI.H
Installation Aborted!
*** Installation Started 3/31/98 17:10 ***
Title: GigaSoft ProEssentials v2.0 Installation
Source: \\SERVER\D\새폴더~1\PE20\SETUP.EXE
INI New: Created INI
INI File: \\SERVER\D\새폴더~1\PE20\CUSTDATA.INI
INI Sect: Registration
INI Item: NAME
INI Val: 최태암
INI File: \\SERVER\D\새폴더~1\PE20\CUSTDATA.INI
INI Sect: Registration
INI Item: COMPANY
INI Val: PowerTech
INI File: \\SERVER\D\새폴더~1\PE20\CUSTDATA.INI
INI Sect: Registration
INI Item: SERIALNUMBER
INI Val: pe20209671
File Copy: E:\PROESS2\V2LIC.TXT
File Copy: E:\PROESS2\LIC-REG.TXT
File Copy: E:\PROESS2\PEONLREF.HLP
File Copy: C:\WINDOWS\SYSTEM\PEGRAPHS.HLP
File Copy: E:\PROESS2\README.TXT
File Copy: E:\PROESS2\VB3PEAPI.TXT
File Copy: E:\PROESS2\C.TXT
File Copy: E:\PROESS2\SAVELOAD.TXT
File Copy: E:\PROESS2\ROSEPLOT.TXT
File Copy: E:\PROESS2\VB4PEAPI.TXT
File Copy: E:\PROESS2\PEGRPAPI.H
File Copy: E:\PROESS2\DEMOCODE.TXT
File Copy: E:\PROESS2\RNDPTSTG.TXT
File Copy: E:\PROESS2\PEGRAPHS.HPJ
File Copy: E:\PROESS2\PECONTXT.H
File Copy: E:\PROESS2\PEGRAPHS.DOC
File Copy: E:\PROESS2\PRNTPAGE.TXT
File Copy: E:\PROESS2\VBPEVSET.TXT
File Copy: E:\PROESS2\POWERB4.TXT
File Copy: E:\PROESS2\OWL.TXT
File Copy: E:\PROESS2\HORZAXES.TXT
File Copy: E:\PROESS2\DELPVSET.TXT
File Copy: E:\PROESS2\BESTFIT.TXT
File Copy: E:\PROESS2\ACCPRINT.TXT
File Copy: E:\PROESS2\ACCESS2.TXT
File Copy: E:\PROESS2\REALTIME.TXT
File Copy: E:\PROESS2\CLIPRGN.TXT
File Copy: E:\PROESS2\PEGRAP32.LIB
File Copy: E:\PROESS2\PEGRPAPI.H
File Copy: E:\PROESS2\DEMO32.EXE
File Copy: C:\WINDOWS\SYSTEM\PEGRAP32.DLL
Date/Time: Following file not copied.
 File Copy: C:\WINDOWS\SYSTEM\MSVCRT20.DLL
Made Dir: E:\PROESS2\VB4-32
File Copy: E:\PROESS2\VB4-32\FORM1.FRM
File Copy: E:\PROESS2\VB4-32\FORM2.FRM
File Copy: E:\PROESS2\VB4-32\FORM2.FRX
File Copy: E:\PROESS2\VB4-32\FORM3.FRM
File Copy: E:\PROESS2\VB4-32\FORM3.FRX
File Copy: E:\PROESS2\VB4-32\FORM4.FRM
File Copy: E:\PROESS2\VB4-32\FORM4.FRX
File Copy: E:\PROESS2\VB4-32\FORM5.FRM
File Copy: E:\PROESS2\VB4-32\FORM5.FRX
File Copy: E:\PROESS2\VB4-32\FORM6.FRM
File Copy: E:\PROESS2\VB4-32\FORM6.FRX
File Copy: E:\PROESS2\VB4-32\FORM7.FRM
File Copy: E:\PROESS2\VB4-32\FORM7.FRX
File Copy: E:\PROESS2\VB4-32\MODULE1.BAS
File Copy: C:\WINDOWS\SYSTEM\pego.lic
File Copy: C:\WINDOWS\SYSTEM\pego32.ocx
File Copy: C:\WINDOWS\SYSTEM\pepco32.ocx
File Copy: C:\WINDOWS\SYSTEM\pepso32.ocx
File Copy: C:\WINDOWS\SYSTEM\pesgo32.ocx
File Copy: E:\PROESS2\VB4-32\PROJECT1.VBP
File Copy: E:\PROESS2\VB4-32\README.TXT
File Copy: C:\WINDOWS\SYSTEM\oc30.dll
Date/Time: Following file not copied.
 File Copy: C:\WINDOWS\SYSTEM\mfcans32.dll
Made Dir: E:\PROESS2\DELPHI2
File Copy: E:\PROESS2\DELPHI2\PEGRPAPI.PAS
File Copy: E:\PROESS2\DELPHI2\PEGVCL.DCR
File Copy: E:\PROESS2\DELPHI2\PEGVCL.PAS
File Copy: E:\PROESS2\DELPHI2\PEPCVCL.DCR
File Copy: E:\PROESS2\DELPHI2\PEPCVCL.PAS
File Copy: E:\PROESS2\DELPHI2\PEPSVCL.DCR
File Copy: E:\PROESS2\DELPHI2\PEPSVCL.PAS
File Copy: E:\PROESS2\DELPHI2\PESGVCL.DCR
File Copy: E:\PROESS2\DELPHI2\PESGVCL.PAS
File Copy: E:\PROESS2\DELPHI2\PROJECT1.DOF
File Copy: E:\PROESS2\DELPHI2\PROJECT1.DPR
File Copy: E:\PROESS2\DELPHI2\PROJECT1.RES
File Copy: E:\PROESS2\DELPHI2\README.TXT
File Copy: E:\PROESS2\DELPHI2\UNIT1.DFM
File Copy: E:\PROESS2\DELPHI2\UNIT1.PAS
File Copy: E:\PROESS2\DELPHI2\UNIT2.DFM
File Copy: E:\PROESS2\DELPHI2\UNIT2.PAS
File Copy: E:\PROESS2\DELPHI2\UNIT3.DFM
File Copy: E:\PROESS2\DELPHI2\UNIT3.PAS
File Copy: E:\PROESS2\DELPHI2\UNIT4.DFM
File Copy: E:\PROESS2\DELPHI2\UNIT4.PAS
File Copy: E:\PROESS2\DELPHI2\UNIT5.DFM
File Copy: E:\PROESS2\DELPHI2\UNIT5.PAS
File Copy: E:\PROESS2\DELPHI2\UNIT6.DFM
File Copy: E:\PROESS2\DELPHI2\UNIT6.PAS
File Copy: E:\PROESS2\DELPHI2\UNIT7.DFM
File Copy: E:\PROESS2\DELPHI2\UNIT7.PAS
Made Dir: E:\PROESS2\BUILDER
File Copy: E:\PROESS2\BUILDER\PEGCPP.DCR
File Copy: E:\PROESS2\BUILDER\PEPCCPP.DCR
File Copy: E:\PROESS2\BUILDER\PEPSCPP.DCR
File Copy: E:\PROESS2\BUILDER\PESGCPP.DCR
File Copy: E:\PROESS2\BUILDER\PEGCPP.CPP
File Copy: E:\PROESS2\BUILDER\PEPCCPP.CPP
File Copy: E:\PROESS2\BUILDER\PEPSCPP.CPP
File Copy: E:\PROESS2\BUILDER\PESGCPP.CPP
File Copy: E:\PROESS2\BUILDER\PEGRPAPI.HPP
File Copy: E:\PROESS2\BUILDER\PEGVCL.HPP
File Copy: E:\PROESS2\BUILDER\PEPCVCL.HPP
File Copy: E:\PROESS2\BUILDER\PEPSVCL.HPP
File Copy: E:\PROESS2\BUILDER\PESGVCL.HPP
File Copy: E:\PROESS2\BUILDER\PEGRPAPI.OBJ
File Copy: E:\PROESS2\BUILDER\PEGVCL.OBJ
File Copy: E:\PROESS2\BUILDER\PEPCVCL.OBJ
File Copy: E:\PROESS2\BUILDER\PEPSVCL.OBJ
File Copy: E:\PROESS2\BUILDER\PESGVCL.OBJ
File Copy: E:\PROESS2\BUILDER\PEGRAP32.LIB
Made Dir: E:\PROESS2\BUILDER\EXAMPLE
File Copy: E:\PROESS2\BUILDER\EXAMPLE\PROJECT1.MAK
File Copy: E:\PROESS2\BUILDER\EXAMPLE\PROJECT1.CPP
File Copy: E:\PROESS2\BUILDER\EXAMPLE\PROJECT1.RES
File Copy: E:\PROESS2\BUILDER\EXAMPLE\UNIT1.CPP
File Copy: E:\PROESS2\BUILDER\EXAMPLE\UNIT1.H
File Copy: E:\PROESS2\BUILDER\EXAMPLE\UNIT1.DFM
File Copy: E:\PROESS2\BUILDER\EXAMPLE\UNIT2.CPP
File Copy: E:\PROESS2\BUILDER\EXAMPLE\UNIT2.H
File Copy: E:\PROESS2\BUILDER\EXAMPLE\UNIT2.DFM
File Copy: E:\PROESS2\BUILDER\EXAMPLE\UNIT3.CPP
File Copy: E:\PROESS2\BUILDER\EXAMPLE\UNIT3.H
File Copy: E:\PROESS2\BUILDER\EXAMPLE\UNIT3.DFM
File Copy: E:\PROESS2\BUILDER\EXAMPLE\UNIT4.CPP
File Copy: E:\PROESS2\BUILDER\EXAMPLE\UNIT4.H
File Copy: E:\PROESS2\BUILDER\EXAMPLE\UNIT4.DFM
File Copy: E:\PROESS2\BUILDER\EXAMPLE\UNIT5.CPP
File Copy: E:\PROESS2\BUILDER\EXAMPLE\UNIT5.H
File Copy: E:\PROESS2\BUILDER\EXAMPLE\UNIT5.DFM
File Copy: E:\PROESS2\BUILDER\EXAMPLE\UNIT6.CPP
File Copy: E:\PROESS2\BUILDER\EXAMPLE\UNIT6.H
File Copy: E:\PROESS2\BUILDER\EXAMPLE\UNIT6.DFM
File Copy: E:\PROESS2\BUILDER\EXAMPLE\UNIT7.CPP
File Copy: E:\PROESS2\BUILDER\EXAMPLE\UNIT7.H
File Copy: E:\PROESS2\BUILDER\EXAMPLE\UNIT7.DFM
File Copy: E:\PROESS2\BUILDER\README.TXT
Made Dir: E:\PROESS2\ACCESS7
File Copy: E:\PROESS2\ACCESS7\PE_DB2.MDB
File Copy: E:\PROESS2\ACCESS7\README.TXT
