^D:\PROJECTS\PACK CYCLER\GIT\CTSPACK_V1016\PACKCYCLER_V1016_LGC_JSON\JSONCPP-1.8.4\JSONCPP-1.8.4\MAKEFILES\MSVC2010\DEBUG\JSON_READER.OBJ|D:\PROJECTS\PACK CYCLER\GIT\CTSPACK_V1016\PACKCYCLER_V1016_LGC_JSON\JSONCPP-1.8.4\JSONCPP-1.8.4\MAKEFILES\MSVC2010\DEBUG\JSON_VALUE.OBJ|D:\PROJECTS\PACK CYCLER\GIT\CTSPACK_V1016\PACKCYCLER_V1016_LGC_JSON\JSONCPP-1.8.4\JSONCPP-1.8.4\MAKEFILES\MSVC2010\DEBUG\JSON_WRITER.OBJ
C:\WINDOWS\GLOBALIZATION\SORTING\SORTDEFAULT.NLS
C:\WINDOWS\SYSTEM32\TZRES.DLL
D:\PROJECTS\PACK CYCLER\GIT\CTSPACK_V1016\PACKCYCLER_V1016_LGC_JSON\JSONCPP-1.8.4\JSONCPP-1.8.4\MAKEFILES\MSVC2010\DEBUG\JSON_READER.OBJ
D:\PROJECTS\PACK CYCLER\GIT\CTSPACK_V1016\PACKCYCLER_V1016_LGC_JSON\JSONCPP-1.8.4\JSONCPP-1.8.4\MAKEFILES\MSVC2010\DEBUG\JSON_VALUE.OBJ
D:\PROJECTS\PACK CYCLER\GIT\CTSPACK_V1016\PACKCYCLER_V1016_LGC_JSON\JSONCPP-1.8.4\JSONCPP-1.8.4\MAKEFILES\MSVC2010\DEBUG\JSON_WRITER.OBJ
